Circuitos lógicos/exp_1/Experimento1-1/simulation/qsim/exp1.msim.vcd
$comment
	File created using the following command:
		vcd file exp1.msim.vcd -direction
$end
$date
	Mon Mar 02 16:15:25 2020
$end
$version
	ModelSim Version 10.5b
$end
$timescale
	1ps
$end

$scope module exp1_vlg_vec_tst $end
$var reg 1 ! a $end
$var reg 1 " b $end
$var reg 1 # c $end
$var reg 1 $ d $end
$var wire 1 % f1 $end
$var wire 1 & f2 $end
$var wire 1 ' f3 $end
$var wire 1 ( f4 $end

$scope module i1 $end
$var wire 1 ) gnd $end
$var wire 1 * vcc $end
$var wire 1 + unknown $end
$var tri1 1 , devclrn $end
$var tri1 1 - devpor $end
$var tri1 1 . devoe $end
$var wire 1 / f1~output_o $end
$var wire 1 0 f2~output_o $end
$var wire 1 1 f3~output_o $end
$var wire 1 2 f4~output_o $end
$var wire 1 3 a~input_o $end
$var wire 1 4 b~input_o $end
$var wire 1 5 c~input_o $end
$var wire 1 6 inst5~0_combout $end
$var wire 1 7 d~input_o $end
$var wire 1 8 inst9~0_combout $end
$upscope $end
$upscope $end
$enddefinitions $end
#0
$dumpvars
0!
0"
0#
0$
0%
0&
0'
0(
0)
1*
x+
1,
1-
1.
0/
00
01
02
03
04
05
06
07
08
$end
#50000
1$
17
18
12
1(
#100000
1#
0$
15
07
08
16
11
02
0(
1'
#150000
1$
17
18
12
1(
#200000
1"
0#
0$
05
07
14
10
1&
08
06
01
02
0(
0'
#250000
1$
17
18
12
1(
#300000
1#
0$
15
07
08
16
11
02
0(
1'
#350000
1$
17
#400000
1!
0"
0#
0$
05
07
13
04
00
1/
1%
0&
06
01
0'
#450000
1$
17
18
12
1(
#500000
1#
0$
15
07
08
16
11
02
0(
1'
#550000
1$
17
#600000
1"
0#
0$
05
07
14
10
1&
06
01
0'
#650000
1$
17
#700000
1#
0$
15
07
#750000
1$
17
#800000
0!
0"
0#
0$
05
07
03
04
00
0/
0%
0&
#850000
1$
17
18
12
1(
#900000
1#
0$
15
07
08
16
11
02
0(
1'
#950000
1$
17
18
12
1(
